<?xml version="1.0" standalone="no"?>
<!DOCTYPE svg PUBLIC "-//W3C//DTD SVG 20010904//EN"
 "http://www.w3.org/TR/2001/REC-SVG-20010904/DTD/svg10.dtd">
<svg version="1.0" xmlns="http://www.w3.org/2000/svg"
 width="260.000000pt" height="260.000000pt" viewBox="0 0 260.000000 260.000000"
 preserveAspectRatio="xMidYMid meet">
<metadata>
Created by potrace 1.11, written by Peter Selinger 2001-2013
</metadata>
<g transform="translate(0.000000,260.000000) scale(0.100000,-0.100000)"
fill="#000000" stroke="none">
<path d="M497 2058 c-19 -17 -36 -58 -66 -157 -22 -74 -39 -137 -36 -139 2 -2
113 -4 247 -4 134 0 247 -3 252 -6 6 -3 53 -6 106 -7 201 -5 266 -83 223 -269
-23 -103 -102 -348 -132 -412 -49 -104 -128 -173 -226 -199 -16 -4 -96 -9
-177 -10 -159 -4 -156 -5 -139 50 5 17 39 129 76 250 37 121 69 230 72 241 5
22 5 22 -203 20 l-207 -1 -13 -40 c-29 -93 -72 -234 -87 -285 -9 -30 -33 -109
-53 -175 -102 -340 -108 -363 -94 -380 12 -15 53 -16 429 -12 229 2 430 7 446
11 114 27 159 42 230 76 197 95 329 286 435 632 94 303 107 408 68 525 -24 70
-47 104 -109 164 -66 63 -153 104 -284 135 -16 4 -188 9 -381 11 l-351 4 -26
-23z"/>
<path d="M1516 2050 c109 -54 190 -141 229 -242 10 -27 20 -48 24 -48 3 0 67
-2 141 -3 148 -3 186 -14 208 -62 43 -94 -34 -249 -143 -285 -53 -17 -61 -18
-160 -19 l-91 -1 -31 -102 c-17 -57 -40 -131 -50 -165 l-20 -61 58 2 c55 2 59
0 64 -24 3 -14 8 -36 11 -50 3 -14 7 -36 10 -50 49 -257 83 -392 100 -405 15
-11 58 -14 202 -15 169 0 183 1 202 20 11 11 20 28 20 38 0 9 -31 137 -68 285
l-68 267 65 37 c82 45 165 113 218 178 125 153 177 397 113 529 -38 79 -130
149 -230 176 -25 7 -54 15 -65 18 -11 3 -195 7 -410 9 l-390 4 61 -31z"/>
</g>
</svg>
